10 Calculating tf-idf Scores with Tidytext | A short guide to using British Library Newspaper Data, using R
…
load('tokenised_news_sample')

issue_words = tokenised_news_sample %>% 
  mutate(issue_code = paste0(title, full_date)) %>%
  group_by(issue_code, word) %>%
  tally() %>% 
  arrange(desc(n))

Next use bind_tf_idf() to calculate the measurement for each word in the dataframe.

issue_words %>% bind_tf_idf(word, issue_code, n)

## # A tibble: 14,071,360 x 6
## # Groups:   issue_code [1,358]
##    issue_code        word       n     tf   idf tf_idf
##    <chr>             <chr>  <int>  <dbl> <dbl>  <dbl>
##  1 00020851860-02-29 street   631 0.0220     0      0
##  2 00020841859-02-18 street   583 0.0176     0      0
##  3 00020841859-01-07 street   570 0.0179     0      0
##  4 00020841859-01-01 street   564 0.0174     0      0
##  5 00020841859-04-02 street   553 0.0169     0      0
##  6 00020841859-02-24 street   552 0.0169     0      0
##  7 00020841859-03-05 street   548 0.0183     0      0
##  8 00020841859-03-12 street   537 0.0168     0      0
##  9 00020841859-04-04 street   537 0.0164     0      0
## 10 00020841859-03-10 street   532 0.0162     0      0
## # … with 14,071,350 more rows

Now we can sort it in descending order of the issue code, to find the most ‘unusual’ words:

issue_words %>% 
  bind_tf_idf(word, issue_code, n) %>% 
  arrange(desc(tf_idf))

## # A tibble: 14,071,360 x 6
## # Groups:   issue_code [1,358]
##    issue_code        word          n      tf   idf tf_idf
##    <chr>             <chr>     <int>   <dbl> <dbl>  <dbl>
##  1 00020831853-09-24 gemouth       3 0.00441  7.21 0.0318
##  2 00020831853-09-24 branchns      2 0.00294  7.21 0.0212
##  3 00020831856-05-19 tetanus      86 0.00494  4.04 0.0199
##  4 00020831853-09-24 iitio         2 0.00294  6.12 0.0180
##  5 00020831856-06-18 dolley       27 0.00176  7.21 0.0127
##  6 00020831853-12-29 decimal      88 0.00414  3.04 0.0126
##  7 00020831856-07-19 strychnia    58 0.00331  3.69 0.0122
##  8 00020831856-08-08 exhibitor    55 0.00310  3.75 0.0116
##  9 00020851860-08-22 antimony     81 0.00396  2.69 0.0107
## 10 00020831853-09-24 a:eof         1 0.00147  7.21 0.0106
## # … with 14,071,350 more rows

What does this tell us? Well, unfortunately, most of the ‘unusual’ words by this measure are OCR errors or spelling mistakes. One way to correct for this is to only include words in an English language dictionary. Use the lexicon package and then the command data(grady_augmented) to download a dictionary of English language words and common proper nouns, as a character vector:

library(lexicon)

data(grady_augmented)

Get tf-idf scores again, filtering the dataset first to include only words within grady_augmented

issue_words %>% 
  filter(word %in% grady_augmented) %>%
  bind_tf_idf(word, issue_code, n) %>% 
  arrange(desc(tf_idf))

## # A tibble: 8,244,399 x 6
## # Groups:   issue_code [1,358]
##    issue_code        word          n      tf   idf tf_idf
##    <chr>             <chr>     <int>   <dbl> <dbl>  <dbl>
##  1 00020831856-05-19 tetanus      86 0.00612  4.04 0.0247
##  2 00020831853-09-24 genna         1 0.00292  5.83 0.0170
##  3 00020831853-12-29 decimal      88 0.00537  3.04 0.0163
##  4 00020831856-06-18 dolley       27 0.00223  7.21 0.0161
##  5 00020831856-08-08 exhibitor    55 0.00415  3.75 0.0156
##  6 00020831853-09-24 fearer        1 0.00292  5.27 0.0154
##  7 00020831853-09-24 fredrick      1 0.00292  5.27 0.0154
##  8 00020831853-09-24 shawm         1 0.00292  5.27 0.0154
##  9 00020831853-09-24 shifters      1 0.00292  5.27 0.0154
## 10 00020831853-09-24 vising        1 0.00292  5.13 0.0150
## # … with 8,244,389 more rows

The highest tf-idf score is for the word ‘tetanus’ on 19th May, 1856. This means that this word occurred lots of times in this issue, and not very often in other issues. This might point to particular topics, and it might, in particular, point to topics which had a very short or specific lifespan.

If we had a bigger dataset, or one arranged in another way, these words might point to linguistic differences between regions, publishers, or writers.

Let’s find the tetanus articles. We can use a function called str_detect() with filter() to filter to just articles containing a given word. So we’ll go back to the untokenised dataframe.

load('news_sample_dataframe')
news_sample_dataframe %>% filter(str_detect(text, "tetanus")) 

## # A tibble: 33 x 7
##    article_code art   text                          title year  date  full_date 
##           <int> <chr> <chr>                         <chr> <chr> <chr> <date>    
##  1        12355 0044  "what  quantity  of  strychn… 0002… 1856  0311  1856-03-11
##  2        16391 0016  "heffield,  and  LinColn,  2… 0002… 1856  0515  1856-05-15
##  3        16497 <NA>  "THE  RIJGELEY  POISONINGS. … 0002… 1856  0516  1856-05-16
##  4        16534 0037  "POLICE  COURT.-YESTERDAY  (… 0002… 1856  0517  1856-05-17
##  5        16537 0040  "am  glad  you  have  come  … 0002… 1856  0517  1856-05-17
##  6        16607 0030  "CENTRAL  AMERICA  It  is  v… 0002… 1856  0519  1856-05-19
##  7        16609 0032  "14e  Attorney  -General  : … 0002… 1856  0519  1856-05-19
##  8        16611 0034  "son  Cie  from  the  admini… 0002… 1856  0519  1856-05-19
##  9        16668 0036  "THEATRE  ROYAL  an  English… 0002… 1856  0520  1856-05-20
## 10        16726 0029  "THE  NORTHERN  TIMES.---LIV… 0002… 1856  0521  1856-05-21
## # … with 23 more rows
…
