13 Detecting text reuse in newspaper articles. | A short guide to using British Library Newspaper Data, using R
…
Next, use lsh_candidates() to compare each bucket, and generate a list of candidates.

candidates <- lsh_candidates(buckets)

Next we go back to the full corpus, and calculate the similarity score for these pairs, using lsh_compare(). The first argument is the candidates, the second is the full corpus, the third is the method (other similarity functions could be used).

jacsimilarity_both = lsh_compare(candidates, 
                                 reusecorpus, 
                                 jaccard_similarity, 
                                 progress = FALSE) %>% 
  arrange(desc(score))

jacsimilarity_both

## # A tibble: 7,423 x 3
##    a            b            score
##    <chr>        <chr>        <dbl>
##  1 article_1053 article_1107     1
##  2 article_1083 article_3348     1
##  3 article_1110 article_1134     1
##  4 article_1110 article_1536     1
##  5 article_1110 article_1566     1
##  6 article_1110 article_1689     1
##  7 article_1110 article_1766     1
##  8 article_1110 article_1827     1
##  9 article_1110 article_1836     1
## 10 article_1110 article_1908     1
## # … with 7,413 more rows
…
