11 Sentiment analysis | A short guide to using British Library Newspaper Data, using R
…
(https://saifmohammad.com/WebPages/NRC-Emotion-Lexicon.htm)

The NRC dataset is a bit different to the other ones. This time, there’s a list of words, and an emotion associated with that word. A word can have multiple entries, with different emotions attached to them.

11.3 Load the tokenised news sample

load('tokenised_news_sample')

This has two colums, ‘word’ and ‘value’. inner_join() will allow you to merge this with the tokenised dataframe.

tokenised_news_sample %>% inner_join(afinnsentiments)

## Joining, by = "word"

## # A tibble: 2,056,429 x 8
##    article_code art   title   year  date  full_date  word     value
##           <int> <chr> <chr>   <chr> <chr> <date>     <chr>    <dbl>
##  1           11 0011  0002083 1853  0924  1853-09-24 favor        2
##  2           12 0012  0002083 1853  0924  1853-09-24 blind       -1
##  3           16 0016  0002083 1853  0924  1853-09-24 worth        2
##  4           16 0016  0002083 1853  0924  1853-09-24 ban         -2
##  5           16 0016  0002083 1853  0924  1853-09-24 benefit      2
##  6           28 0028  0002083 1853  0924  1853-09-24 united       1
##  7           31 0031  0002083 1853  0924  1853-09-24 bankrupt    -3
##  8           36 0036  0002083 1853  0924  1853-09-24 mad         -3
##  9           40 0040  0002083 1853  0924  1853-09-24 resolve      2
## 10           40 0040  0002083 1853  0924  1853-09-24 ass         -4
## # … with 2,056,419 more rows
…
I’m also using add_tally() to filter out only articles which contain at least 20 of these words from the lexicon, because I think it will make the score more meaningful.

Let’s look at the most ‘positive’ article

tokenised_news_sample %>% 
  inner_join(afinnsentiments) %>% 
  group_by(article_code) %>% 
  add_tally() %>% 
  filter(n>20) %>% 
  tally(mean(value)) %>% 
  arrange(desc(n))

## Joining, by = "word"

## # A tibble: 26,356 x 2
##    article_code     n
##           <int> <dbl>
##  1        31489  2.7 
##  2        33257  2.64
##  3        53197  2.61
##  4        17309  2.56
##  5        53655  2.52
##  6        54015  2.52
##  7        32873  2.52
##  8         7114  2.5 
##  9        52521  2.48
## 10         6675  2.48
## # … with 26,346 more rows
…
