9 Term Frequencies | A short guide to using British Library Newspaper Data, using R
…
You can also specify an argument for token, allowing you to split the text into sentences, characters, lines, or n-grams.If you split into n-grams, you need to use the argument n= to specify how many consecutive words you’d like to use.

Like this:

news_sample_dataframe %>% 
  unnest_tokens(output = word, 
                input = text, 
                token = 'ngrams', 
                n =3)

## # A tibble: 81,795,495 x 7
##    article_code art   title   year  date  full_date  word           
##           <int> <chr> <chr>   <chr> <chr> <date>     <chr>          
##  1            1 0001  0002083 1853  0924  1853-09-24 <NA>           
##  2            2 0002  0002083 1853  0924  1853-09-24 <NA>           
##  3            3 0003  0002083 1853  0924  1853-09-24 <NA>           
##  4            4 0004  0002083 1853  0924  1853-09-24 <NA>           
##  5            5 0005  0002083 1853  0924  1853-09-24 iron foundry ei
##  6            6 0006  0002083 1853  0924  1853-09-24 barrister ac i 
##  7            6 0006  0002083 1853  0924  1853-09-24 ac i dated     
##  8            6 0006  0002083 1853  0924  1853-09-24 i dated th     
##  9            7 0007  0002083 1853  0924  1853-09-24 things re r    
## 10            7 0007  0002083 1853  0924  1853-09-24 re r quired    
## # … with 81,795,485 more rows
…
Before we do any counting, there’s a couple more processing steps. I’m going to remove ‘stop words’. Stop words are very frequently-used words which often crowd out more interesting results. This isn’t always the case, and you shoudln’t just automatically get rid of them, but rather think about what it is yo uare looking for. For this tutorial, though, the results will be more interesting if it’s not just a bunch of ‘the’ and ‘at’ and so forth.

This is really easy. We load a dataframe of stopwords, which is included in the tidytext package.

data("stop_words")

Next use the function anti_join(). This bascially removes any word in our word list which is also in the stop words list

news_sample_dataframe %>% 
  unnest_tokens(output = word, input = text) %>% 
  anti_join(stop_words)

## Joining, by = "word"

## # A tibble: 44,126,361 x 7
##    article_code art   title   year  date  full_date  word     
##           <int> <chr> <chr>   <chr> <chr> <date>     <chr>    
##  1            1 0001  0002083 1853  0924  1853-09-24 silo's   
##  2            2 0002  0002083 1853  0924  1853-09-24 mt       
##  3            2 0002  0002083 1853  0924  1853-09-24 uor      
##  4            3 0003  0002083 1853  0924  1853-09-24 cabar    
##  5            4 0004  0002083 1853  0924  1853-09-24 chrini   
##  6            5 0005  0002083 1853  0924  1853-09-24 iron     
##  7            5 0005  0002083 1853  0924  1853-09-24 foundry  
##  8            5 0005  0002083 1853  0924  1853-09-24 ei       
##  9            6 0006  0002083 1853  0924  1853-09-24 barrister
## 10            6 0006  0002083 1853  0924  1853-09-24 ac       
## # … with 44,126,351 more rows
…
9.5.2 The top five words for each day in the dataset:

tokenised_news_sample %>% 
  group_by(full_date, word) %>% 
  tally() %>% 
  arrange(full_date, desc(n)) %>% 
  group_by(full_date) %>% 
  top_n(5) %>% head(100)

## Selecting by n

## # A tibble: 100 x 3
## # Groups:   full_date [18]
##    full_date  word          n
##    <date>     <chr>     <int>
##  1 1853-09-24 liverpool     9
##  2 1853-09-24 lat           5
##  3 1853-09-24 cent          3
##  4 1853-09-24 gemouth       3
##  5 1853-09-24 hat           3
##  6 1853-09-24 street        3
##  7 1853-09-24 time          3
##  8 1853-09-24 york          3
##  9 1853-09-26 day          15
## 10 1853-09-26 cents        14
## # … with 90 more rows
…
You can also summarise by units of time, using the function cut(). This rounds the date down to the nearest day, year or month. Once it’s been rounded down, we can count by this new value.

9.5.4 Top words by year

tokenised_news_sample %>% 
  mutate(year = cut(full_date, 'year')) %>% 
  group_by(year, word) %>% 
  tally() %>% 
  arrange(year, desc(n)) %>% 
  group_by(year) %>% 
  top_n(5)

## Selecting by n

## # A tibble: 30 x 3
## # Groups:   year [6]
##    year       word          n
##    <fct>      <chr>     <int>
##  1 1853-01-01 liverpool  9231
##  2 1853-01-01 street     8571
##  3 1853-01-01 nov        6147
##  4 1853-01-01 oct        5527
##  5 1853-01-01 sept       4337
##  6 1856-01-01 street    59297
##  7 1856-01-01 liverpool 52905
##  8 1856-01-01 john      19469
##  9 1856-01-01 london    18638
## 10 1856-01-01 tons      17566
## # … with 20 more rows
…
